{
  "title": "Process component",
  "type": "object",
  "required": [
    "title",
    "description",
    "content"
  ],
  "properties": {
		"identifier": {
			"type": "string",
			"title": "Identifier"
		},
    "title": {
      "type": "string",
      "title": "Title"
    },
    "description": {
      "type": "string",
      "title": "Button Title"
    },
    "content": {
      "type": "array",
      "title": "Processes",
      "items": {
        "type": "object",
        "required": [
          "icon",
          "description"
        ],
        "properties": {
          "icon": {
             "type": "string",
              "format": "uri",
            "title": "URL",
            "description": "URL of the icon for the process"
          },
          "description": {
            "type": "string",
            "title": "Description"
          }
        }
      }
    }
  }
}